ccode,country
AFG,Afghanistan
ALB,Albania
ALG,Algeria
ANG,Angola
ANT,Antigua
ARG,Argentina
ARM,Armenia
ARS,Saudi Arabia
AUS,Australia
AUT,Austria
AZE,Azerbaidjan
BAH,Bahama
BAN,Bangladesh
BAR,Barbados
BEL,Belgium
BEN,Benin
BER,Bermuda
BFA,Burkina Faso
BHR,Bahrain
BIA,Belarus
BIH,Bosnia & Nercegovina
BIZ,Belize
BOL,Bolivia
BOT,Botswana
BRA,Brazil
BRU,Brunei
BUL,Bulgaria
BUR,Burundi
CAF,Central African Republic
CAM,Cameroon
CAN,Canada
CAY,Cayman Islands
CHA,Chad
CHI,Chile
CHN,China (People's Republic of)
COL,Colombia
CON,Congo (Brazzavile)
COS,Costarica
CRO,Croatia
CUB,Cuba
CYP,Cyprus
CVI,Cape Verde
CZE,Czechoslovakia/Czech Republic
DAN,Denmark
DOM,Dominikana
DRC,Congo (Democratic Republic of)
ECU,Ecuador
EGY,Egypt
EMI,United Arab Emirates
ENG,England
ESP,Spain
EST,Estonia
ETH,Ethiopia
FAR,Faroe Islands
FID,Fidi
FIL,Philippines
FIN,Finland
FRA,France
GAB,Gabon
GAM,Gambia
GEO,Georgia
GER,(West) Germany
GHA,Ghana
GRE,Greece
GRN,Grenada
GUA,Guatemala
GUB,Guinea Bissau
GUI,Guinea
GUY,Guyana
HAI,Haiti
HKG,Hong Kong
HOL,Holland/The Netherlands
HON,Honduras
HUN,Hungary
INA,Indonesia
IND,India
IRK,Iraq
IRL,Ireland
IRN,Iran
ISL,Iceland
ISR,Israel
ITA,Italy
IVC,Ivory Coast
JAM,Jamaica
JAP,Japonia
JEM,Jemen
JLD,Jemen's People Republic (South Jemen)
JOR,Jordania
JUG,Yugoslavia
KAM,Kampuchea
KAZ,Kazachstan
KEN,Kenya
KIR,Kirgistan
KIT,St. Kitts & Nevis
KLD,North Korea
KOR,South Korea
KUW,Kuwait
LAO,Laos
LBA,Libya
LBN,Liban
LBR,Liberia
LES,Lesotho
LIE,Liechenstein
LIT,Lithuania
LOT,Latvia
LUC,Saint Lucia
LUX,Luxembourg
MAC,Macao
MAD,Madagaskar
MAL,Malaysia
MAR,Morocco
MCA,Macedonia
MEX,Mexico
MLD,Maledives
MLI,Mali
MLT,Malta
MOL,Moldova
MOZ,Mozambique
MRS,Mauritus
MTN,Mauretania
MWI,Malawi
NEP,Nepal
NGA,Nigeria
NGR,Niger
NIC,Nicaragua
NIR,North Ireland
NOR,Norway
NZE,New Zealand
OMA,Oman
PAK,Pakistan
PAN,Panama
PAP,Papua New Guinea
PAR,Paraguay
PER,Peru
POL,Poland
POR,Portugal
PUE,Puerto Rico
QAT,Qatar
REU,Reunion
ROM,Romania
RUS,Russia
RWA,Rwanda
SAF,South Africa
SAL,(El) Salvador
SAM,Samoa (Wester)
SCO,Scotland
SEN,Senegal
SEY,Seychelles
SIN,Singapur
SLA,Slovenia
SLE,Sierra Leone
SLK,Slovakia
SLO,Solomon's Islands
SMA,Sam Marino
SOM,Somali
SRI,Sri Lanka
SUD,Sudan
SUI,Switzerland
SUR,Surinam
SVG,St. Vincent & Grenadines
SWA,Swaziland
SWE,Sweden
SYR,Syria
TAD,Tadjikstan
TAI,Taiwan
TAN,Tanzania
THA,Thailand
TOG,Togo
TOM,Sao Tome & Principe Islands
TRI,Trinidad
TRK,Turkmenistan
TUN,Tunisia
TUR,Turkey
UKR,Ukraine
URU,Uruguay
USA,United States of America
UZB,Uzbekistan
VAN,Vanuatu
VEN,Venezuela
VIE,Vietnam
WAL,Wales
ZAI,Zaire
ZAM,Zambia
ZIM,Zimbabwe